(kicad_pcb (version 20211014) (generator pcbnew)

  (general
    (thickness 1.6)
  )

  (paper "A4")
  (layers
    (0 "F.Cu" signal)
    (31 "B.Cu" signal)
    (32 "B.Adhes" user "B.Adhesive")
    (33 "F.Adhes" user "F.Adhesive")
    (34 "B.Paste" user)
    (35 "F.Paste" user)
    (36 "B.SilkS" user "B.Silkscreen")
    (37 "F.SilkS" user "F.Silkscreen")
    (38 "B.Mask" user)
    (39 "F.Mask" user)
    (40 "Dwgs.User" user "User.Drawings")
    (41 "Cmts.User" user "User.Comments")
    (42 "Eco1.User" user "User.Eco1")
    (43 "Eco2.User" user "User.Eco2")
    (44 "Edge.Cuts" user)
    (45 "Margin" user)
    (46 "B.CrtYd" user "B.Courtyard")
    (47 "F.CrtYd" user "F.Courtyard")
    (48 "B.Fab" user)
    (49 "F.Fab" user)
    (50 "User.1" user)
    (51 "User.2" user)
    (52 "User.3" user)
    (53 "User.4" user)
    (54 "User.5" user)
    (55 "User.6" user)
    (56 "User.7" user)
    (57 "User.8" user)
    (58 "User.9" user)
  )

  (setup
    (stackup
      (layer "F.SilkS" (type "Top Silk Screen"))
      (layer "F.Paste" (type "Top Solder Paste"))
      (layer "F.Mask" (type "Top Solder Mask") (thickness 0.01))
      (layer "F.Cu" (type "copper") (thickness 0.035))
      (layer "dielectric 1" (type "core") (thickness 1.51) (material "FR4") (epsilon_r 4.5) (loss_tangent 0.02))
      (layer "B.Cu" (type "copper") (thickness 0.035))
      (layer "B.Mask" (type "Bottom Solder Mask") (thickness 0.01))
      (layer "B.Paste" (type "Bottom Solder Paste"))
      (layer "B.SilkS" (type "Bottom Silk Screen"))
      (copper_finish "None")
      (dielectric_constraints no)
    )
    (pad_to_mask_clearance 0)
    (grid_origin 139.7 81.28)
    (pcbplotparams
      (layerselection 0x00010fc_ffffffff)
      (disableapertmacros false)
      (usegerberextensions false)
      (usegerberattributes true)
      (usegerberadvancedattributes true)
      (creategerberjobfile true)
      (svguseinch false)
      (svgprecision 6)
      (excludeedgelayer true)
      (plotframeref false)
      (viasonmask false)
      (mode 1)
      (useauxorigin false)
      (hpglpennumber 1)
      (hpglpenspeed 20)
      (hpglpendiameter 15.000000)
      (dxfpolygonmode true)
      (dxfimperialunits true)
      (dxfusepcbnewfont true)
      (psnegative false)
      (psa4output false)
      (plotreference true)
      (plotvalue true)
      (plotinvisibletext false)
      (sketchpadsonfab false)
      (subtractmaskfromsilk false)
      (outputformat 1)
      (mirror false)
      (drillshape 1)
      (scaleselection 1)
      (outputdirectory "")
    )
  )

  (net 0 "")
  (net 1 "Net-(D1-Pad2)")
  (net 2 "Net-(D1-Pad1)")
  (net 3 "Net-(D2-Pad2)")
  (net 4 "Net-(D2-Pad1)")
  (net 5 "5v")
  (net 6 "unconnected-(J1-Pad2)")
  (net 7 "unconnected-(J1-Pad3)")
  (net 8 "unconnected-(J1-Pad4)")
  (net 9 "GND")
  (net 10 "unconnected-(J1-Pad6)")
  (net 11 "Net-(SW1-Pad2)")

  (footprint "fab:PinHeader_UPDI_01x02_P2.54mm_Horizontal_SMD" (layer "F.Cu")
    (tedit 60851B04) (tstamp 0fa0e183-23fd-4787-b228-f9207d787009)
    (at 139.7 104.14)
    (descr "https://s3.amazonaws.com/catalogspreads-pdf/PAGE112-113%20.100%20MALE%20HDR.pdf")
    (tags "horizontal pin header SMD 2.54mm")
    (property "Sheetfile" "tutorial.kicad_sch")
    (property "Sheetname" "")
    (path "/2d9e7081-56fa-4344-80b6-ddfdecedb7c3")
    (attr smd)
    (fp_text reference "J2" (at -1.524 -2.54 180) (layer "F.SilkS")
      (effects (font (size 1 1) (thickness 0.15)) (justify left))
      (tstamp 348b39ce-20d2-4f01-b3b8-e8bd5a2fc26e)
    )
    (fp_text value "Conn_PinHeader_1x02_P2.54mm_Horizontal_SMD" (at 2.1 5.4) (layer "F.Fab")
      (effects (font (size 1 1) (thickness 0.15)))
      (tstamp c21bc6ca-6ffd-4335-af6c-a4b2da7ed6e9)
    )
    (fp_text user "UPDI" (at -1.905 0) (layer "F.SilkS")
      (effects (font (size 1 1) (thickness 0.15)) (justify right))
      (tstamp 70b8744a-7f56-4a6d-a71a-1de076f49081)
    )
    (fp_text user "GND" (at -1.905 2.54) (layer "F.SilkS")
      (effects (font (size 1 1) (thickness 0.15)) (justify right))
      (tstamp ae713629-1dd9-47a6-be0e-0ab9885d9013)
    )
    (fp_text user "${REFERENCE}" (at 13.52 6.31 90) (layer "F.Fab")
      (effects (font (size 1 1) (thickness 0.15)))
      (tstamp 39bb9734-8b7d-4247-bc38-bd4a5d9ed06f)
    )
    (fp_line (start 3.81 2.794) (end 1.27 2.794) (layer "F.SilkS") (width 0.12) (tstamp 03e75cc6-2d96-4d7f-9d3b-b64b049a6429))
    (fp_line (start -1.27 -1.27) (end 0 -1.27) (layer "F.SilkS") (width 0.12) (tstamp 139845db-428c-441f-ab00-21d347aa3d8b))
    (fp_line (start 6.35 -1.27) (end 6.35 3.81) (layer "F.SilkS") (width 0.12) (tstamp 13c15b23-49c6-473a-a640-272df9fa9b60))
    (fp_line (start 3.81 -0.254) (end 1.27 -0.254) (layer "F.SilkS") (width 0.12) (tstamp 2b78fb96-b83a-454d-9c4c-243d3fcbdc74))
    (fp_line (start 6.35 3.81) (end 3.81 3.81) (layer "F.SilkS") (width 0.12) (tstamp 4155505f-3687-467b-8149-9afc3d422f5e))
    (fp_line (start 3.81 0.254) (end 1.27 0.254) (layer "F.SilkS") (width 0.12) (tstamp 7bdf0f3e-3a1c-4abb-9c33-d80432067514))
    (fp_line (start 3.81 2.286) (end 1.27 2.286) (layer "F.SilkS") (width 0.12) (tstamp b180f6d0-d840-4b9f-8540-82b63ef22fd3))
    (fp_line (start 3.81 -1.27) (end 6.35 -1.27) (layer "F.SilkS") (width 0.12) (tstamp d80c6f3c-2d1f-40d3-bf71-8046ae8efa09))
    (fp_line (start 3.81 3.81) (end 3.81 -1.27) (layer "F.SilkS") (width 0.12) (tstamp fda9dddb-894c-4a9c-afd9-e6bb2b3fb708))
    (fp_line (start 6.4 4.3) (end 6.4 -1.8) (layer "F.CrtYd") (width 0.05) (tstamp 09cf0645-d8e1-425c-a1b1-50dc308b5fe2))
    (fp_line (start 6.4 -1.8) (end -1.8 -1.8) (layer "F.CrtYd") (width 0.05) (tstamp 340170db-45d6-4c78-9448-445128dd4314))
    (fp_line (start -1.8 4.3) (end 6.4 4.3) (layer "F.CrtYd") (width 0.05) (tstamp c8c01ccd-b5d2-48a3-9337-31437bc0d5b2))
    (fp_line (start -1.8 -1.8) (end -1.8 4.3) (layer "F.CrtYd") (width 0.05) (tstamp f33c1be6-4001-4ece-aa46-3a20267b8ad4))
    (fp_line (start -0.635 2.286) (end -0.635 2.794) (layer "F.Fab") (width 0.1) (tstamp 0ae82e1e-e87b-4074-a3ac-4ce032970e6f))
    (fp_line (start -0.635 -0.254) (end -0.635 0.254) (layer "F.Fab") (width 0.1) (tstamp 35d35ecc-35d5-4891-8a97-348283c292df))
    (fp_line (start 3.8 3.81) (end 6.35 3.81) (layer "F.Fab") (width 0.1) (tstamp 497a3aba-0f0c-436e-9543-aa7c20ad968e))
    (fp_line (start 6.34 -1.27) (end 6.35 3.81) (layer "F.Fab") (width 0.1) (tstamp 56d2c581-0e1d-4968-9265-81ebcc2ced46))
    (fp_line (start 3.81 0) (end -0.635 0) (layer "F.Fab") (width 0.1) (tstamp 7fd42837-f5c5-4745-aa29-c722e6e8c542))
    (fp_line (start 3.8 -1.27) (end 6.34 -1.27) (layer "F.Fab") (width 0.1) (tstamp 84f90a15-76dd-441a-b440-962c336c2b22))
    (fp_line (start 3.81 3.81) (end 3.8 -1.27) (layer "F.Fab") (width 0.1) (tstamp 90033174-e9d8-4aed-9ec7-ca20b26c50cd))
    (fp_line (start 3.81 2.54) (end -0.635 2.54) (layer "F.Fab") (width 0.1) (tstamp ef0a2071-6555-49e0-bc78-da38debe66e0))
    (pad "1" smd rect locked (at 0 0) (size 2.5 1.7) (layers "F.Cu" "F.Paste" "F.Mask")
      (net 9 "GND") (pintype "passive") (tstamp ac6f6ed4-8668-453c-b29a-e5d6005ea361))
    (pad "2" smd rect locked (at 0 2.54) (size 2.5 1.7) (layers "F.Cu" "F.Paste" "F.Mask")
      (net 5 "5v") (pintype "passive") (tstamp f95acf52-40ba-412b-9d45-8c2880174473))
    (model "${FAB}/fab.3dshapes/Header_SMD_01x02_P2.54mm_Horizontal_Male.step"
      (offset (xyz 0 0 0))
      (scale (xyz 1 1 1))
      (rotate (xyz 0 0 0))
    )
  )

  (footprint "fab:Button_Omron_B3SN_6x6mm" (layer "F.Cu")
    (tedit 5EC65B05) (tstamp 1b6d0560-1178-425c-aa39-65ccb9b9adf6)
    (at 86.36 81.28)
    (descr "Surface Mount Tactile Switch for High-Density Packaging")
    (tags "Tactile Switch")
    (property "Sheetfile" "tutorial.kicad_sch")
    (property "Sheetname" "")
    (path "/1ea03dab-2fd1-4d32-8c5e-fd9812f488b4")
    (attr smd)
    (fp_text reference "SW3" (at 0 -4.5) (layer "F.SilkS")
      (effects (font (size 1 1) (thickness 0.15)))
      (tstamp 025baa4e-9c0e-4171-ba18-c81707277562)
    )
    (fp_text value "BUTTON_B3SN" (at 0 4.5) (layer "F.Fab")
      (effects (font (size 1 1) (thickness 0.15)))
      (tstamp 7338b5a9-3a85-4450-86b4-5007c87a58ff)
    )
    (fp_text user "${REFERENCE}" (at 0 -4.5) (layer "F.Fab")
      (effects (font (size 1 1) (thickness 0.15)))
      (tstamp e130aa5f-12f3-4c64-8445-319d961fa089)
    )
    (fp_line (start 3.15 -1) (end 3.15 1) (layer "F.SilkS") (width 0.12) (tstamp 34cf0ce0-4224-4cff-b8da-dac4a1c9b668))
    (fp_line (start -3.15 -3.15) (end 3.15 -3.15) (layer "F.SilkS") (width 0.12) (tstamp 63d855ac-697e-4eed-8221-860e4b1819e2))
    (fp_line (start -3.15 1) (end -3.15 -1) (layer "F.SilkS") (width 0.12) (tstamp 73a44f0b-73f5-401a-a4f9-19586eb00839))
    (fp_line (start 3.15 3.15) (end -3.15 3.15) (layer "F.SilkS") (width 0.12) (tstamp b362ed42-4b28-4023-8338-57fce2c46bcc))
    (fp_line (start -5 -3.7) (end -5 3.7) (layer "F.CrtYd") (width 0.05) (tstamp 3259f80d-9863-4549-b902-9b908fd99360))
    (fp_line (start 5 3.7) (end 5 -3.7) (layer "F.CrtYd") (width 0.05) (tstamp 79977da0-fdcb-4922-8297-b08770982ade))
    (fp_line (start -5 3.7) (end 5 3.7) (layer "F.CrtYd") (width 0.05) (tstamp 8c1aa883-be0a-4c66-94de-9db387d409d3))
    (fp_line (start 5 -3.7) (end -5 -3.7) (layer "F.CrtYd") (width 0.05) (tstamp cb6ca4a6-d548-496b-82da-ad3ca44106a9))
    (fp_line (start 3 3) (end -3 3) (layer "F.Fab") (width 0.1) (tstamp 03273d97-5274-435d-8d30-f6cf1379d2ec))
    (fp_line (start -3 3) (end -3 -3) (layer "F.Fab") (width 0.1) (tstamp c9994eea-4a76-4588-a706-ad2e04aff285))
    (fp_line (start 3 -3) (end 3 3) (layer "F.Fab") (width 0.1) (tstamp e174db42-2133-4bde-8bf0-5dfc27789f4d))
    (fp_line (start -3 -3) (end 3 -3) (layer "F.Fab") (width 0.1) (tstamp e835f670-a4e4-411b-93b0-aa3907eaf197))
    (fp_circle (center 0 0) (end 1.65 0) (layer "F.Fab") (width 0.1) (fill none) (tstamp d4b6492f-ea43-4aae-99e0-bfb2aa20b67f))
    (pad "1" smd rect locked (at -3.5 -2) (size 2.5 1.5) (layers "F.Cu" "F.Paste" "F.Mask")
      (net 5 "5v") (pinfunction "1") (pintype "passive") (tstamp 606bed62-2645-43b2-8746-701feb5d482c))
    (pad "1" smd rect locked (at 3.5 -2) (size 2.5 1.5) (layers "F.Cu" "F.Paste" "F.Mask")
      (net 5 "5v") (pinfunction "1") (pintype "passive") (tstamp c7d84f6e-a707-4ffd-8ab8-e4d824111c03))
    (pad "2" smd rect locked (at -3.5 2) (size 2.5 1.5) (layers "F.Cu" "F.Paste" "F.Mask")
      (net 2 "Net-(D1-Pad1)") (pinfunction "2") (pintype "passive") (tstamp 00f08a0b-82b9-45e5-8519-9f3c6377cd02))
    (pad "2" smd rect locked (at 3.5 2) (size 2.5 1.5) (layers "F.Cu" "F.Paste" "F.Mask")
      (net 2 "Net-(D1-Pad1)") (pinfunction "2") (pintype "passive") (tstamp 26fb18d1-6ffa-4a4a-b050-bfff5417256a))
    (model "${KISYS3DMOD}/Buttons_Switches_SMD.3dshapes/SW_SPST_B3S-1000.wrl"
      (offset (xyz 0 0 0))
      (scale (xyz 1 1 1))
      (rotate (xyz 0 0 0))
    )
  )

  (footprint "fab:R_1206" (layer "F.Cu")
    (tedit 60020482) (tstamp 2ab4e285-80ef-4098-93e3-671fb896f742)
    (at 122.46 104.14)
    (descr "Resistor SMD 1206, hand soldering")
    (tags "resistor 1206")
    (property "Sheetfile" "tutorial.kicad_sch")
    (property "Sheetname" "")
    (path "/c8f46f95-2dbf-4518-90a7-b56fce32193a")
    (attr smd)
    (fp_text reference "R2" (at 0 -1.85) (layer "F.SilkS")
      (effects (font (size 1 1) (thickness 0.15)))
      (tstamp 163963d5-9627-43e4-ac5c-e10ad7299143)
    )
    (fp_text value "R" (at 0 1.9) (layer "F.Fab")
      (effects (font (size 1 1) (thickness 0.15)))
      (tstamp cfa7d3f6-0cc9-4375-a0ac-d721b57ce3a3)
    )
    (fp_text user "${REFERENCE}" (at 0 0) (layer "F.Fab")
      (effects (font (size 0.7 0.7) (thickness 0.105)))
      (tstamp a5d01954-50f2-4ef4-ac22-4fad9b9b2741)
    )
    (fp_line (start 1 1.07) (end -1 1.07) (layer "F.SilkS") (width 0.12) (tstamp 120c613d-4c12-4293-ae3a-6a512771985f))
    (fp_line (start -1 -1.07) (end 1 -1.07) (layer "F.SilkS") (width 0.12) (tstamp f0ad4449-626d-4aef-bbd4-02eba1183b71))
    (fp_line (start -3.25 -1.11) (end -3.25 1.1) (layer "F.CrtYd") (width 0.05) (tstamp 1336502c-11bd-4ec2-9aca-20ce8fd7c351))
    (fp_line (start 3.25 1.1) (end -3.25 1.1) (layer "F.CrtYd") (width 0.05) (tstamp 6e4fd549-4e22-4263-aa63-fbb79f10ecb8))
    (fp_line (start -3.25 -1.11) (end 3.25 -1.11) (layer "F.CrtYd") (width 0.05) (tstamp 72e8fcce-5083-40f6-a91f-3bfabc7c7549))
    (fp_line (start 3.25 1.1) (end 3.25 -1.11) (layer "F.CrtYd") (width 0.05) (tstamp a24c495d-6be2-4999-9a23-d78f9efcd58e))
    (fp_line (start -1.6 -0.8) (end 1.6 -0.8) (layer "F.Fab") (width 0.1) (tstamp 0b71d1a0-f7f1-4898-a4ea-edf5332f8ca7))
    (fp_line (start -1.6 0.8) (end -1.6 -0.8) (layer "F.Fab") (width 0.1) (tstamp 36815cf6-0422-444c-a3e8-ed66ef92f617))
    (fp_line (start 1.6 0.8) (end -1.6 0.8) (layer "F.Fab") (width 0.1) (tstamp 74a9d92f-93b8-42e6-97b6-ac630c5378b8))
    (fp_line (start 1.6 -0.8) (end 1.6 0.8) (layer "F.Fab") (width 0.1) (tstamp 862b97e2-70d6-4aea-9357-60983bc901d8))
    (pad "1" smd rect locked (at -2 0) (size 2 1.7) (layers "F.Cu" "F.Paste" "F.Mask")
      (net 9 "GND") (pintype "passive") (tstamp 1bcfdeb5-4398-4ba9-8d2b-1afb409aafd2))
    (pad "2" smd rect locked (at 2 0) (size 2 1.7) (layers "F.Cu" "F.Paste" "F.Mask")
      (net 9 "GND") (pintype "passive") (tstamp fa98a317-14ca-498d-8226-47acdff0c9f6))
    (model "${FAB}/fab.3dshapes/R_1206.step"
      (offset (xyz 0 0 0))
      (scale (xyz 1 1 1))
      (rotate (xyz 0 0 0))
    )
  )

  (footprint "Connector_USB:USB_Mini-B_Wuerth_65100516121_Horizontal" (layer "F.Cu")
    (tedit 6212BCAC) (tstamp 522ec98c-f663-42b7-a5dd-6f3331445a72)
    (at 139.7 78.74 90)
    (descr "Mini USB 2.0 Type B SMT Horizontal 5 Contacts (https://katalog.we-online.de/em/datasheet/65100516121.pdf)")
    (tags "Mini USB 2.0 Type B")
    (property "Sheetfile" "tutorial.kicad_sch")
    (property "Sheetname" "")
    (path "/26a76904-54da-4a3a-83ce-0c3a47a94c26")
    (attr smd)
    (fp_text reference "J1" (at 0 -5.25 90) (layer "F.SilkS")
      (effects (font (size 1 1) (thickness 0.15)))
      (tstamp 17c56aac-1c19-441e-ad0e-d5f91eeedcde)
    )
    (fp_text value "USB_B_Mini" (at 0 7.35 90) (layer "F.Fab")
      (effects (font (size 1 1) (thickness 0.15)))
      (tstamp c912059d-5f7c-4079-af03-81ed94feabdd)
    )
    (fp_text user "${REFERENCE}" (at 0 0 90) (layer "F.Fab")
      (effects (font (size 1 1) (thickness 0.15)))
      (tstamp df8da694-da12-43e9-b050-9c54dbe4c006)
    )
    (fp_line (start 3.96 -1.15) (end 3.96 1.45) (layer "F.SilkS") (width 0.12) (tstamp 03493525-9e42-4edf-a568-7919892a473f))
    (fp_line (start -3.96 4.35) (end -3.96 6.01) (layer "F.SilkS") (width 0.12) (tstamp 053c8083-a9af-4404-9cbb-5f2f2c004e29))
    (fp_line (start 2.05 -3.46) (end 3.2 -3.46) (layer "F.SilkS") (width 0.12) (tstamp 2b710c32-5910-4fb5-8e24-08ea454479d9))
    (fp_line (start -2.05 -4.05) (end -1.35 -4.05) (layer "F.SilkS") (width 0.12) (tstamp 2c471abf-4676-4834-a661-17c81fec1d5b))
    (fp_line (start -3.96 6.01) (end 3.96 6.01) (layer "F.SilkS") (width 0.12) (tstamp 309cce7c-76a5-40f7-bf52-1289c4234f67))
    (fp_line (start -3.96 1.45) (end -3.96 -1.15) (layer "F.SilkS") (width 0.12) (tstamp 7dfadc2c-0002-4536-9a16-40d98cd244d0))
    (fp_line (start -2.05 -3.46) (end -2.05 -4.05) (layer "F.SilkS") (width 0.12) (tstamp a5c7abb9-628b-4db0-9244-e209be576760))
    (fp_line (start 3.96 6.01) (end 3.96 4.35) (layer "F.SilkS") (width 0.12) (tstamp b5997f1e-9cb8-4172-a147-556eeeae1850))
    (fp_line (start -3.2 -3.46) (end -2.05 -3.46) (layer "F.SilkS") (width 0.12) (tstamp c3e774d4-dedc-494a-89d3-3634a87fe5fb))
    (fp_line (start -5.89 4.65) (end -5.9 1.15) (layer "F.CrtYd") (width 0.05) (tstamp 0e5c956a-0664-4fcf-9bb1-1eae993c2225))
    (fp_line (start -4.35 -0.85) (end -5.9 -0.85) (layer "F.CrtYd") (width 0.05) (tstamp 2262369d-908f-4b7b-8fa8-6f936456c0ae))
    (fp_line (start 4.35 4.65) (end 4.35 6.4) (layer "F.CrtYd") (width 0.05) (tstamp 3b6f4330-bdb8-40df-a620-2777b9dcf025))
    (fp_line (start 4.35 -0.85) (end 4.35 1.15) (layer "F.CrtYd") (width 0.05) (tstamp 45234e68-f309-41ff-b7bf-09e6fd708b9a))
    (fp_line (start -4.35 1.15) (end -4.35 -0.85) (layer "F.CrtYd") (width 0.05) (tstamp 538ab23b-56dc-41b1-84f0-d71d488e9061))
    (fp_line (start 5.9 1.15) (end 5.9 4.65) (layer "F.CrtYd") (width 0.05) (tstamp 729ec6c1-399d-419e-a69c-f6fb09d801a5))
    (fp_line (start 5.9 -0.85) (end 4.35 -0.85) (layer "F.CrtYd") (width 0.05) (tstamp 7457f92b-d768-49d2-a7c7-6385146769b6))
    (fp_line (start 4.35 1.15) (end 5.9 1.15) (layer "F.CrtYd") (width 0.05) (tstamp 81b0798c-3dcf-44aa-bdff-27c7582e7f35))
    (fp_line (start 5.9 -4.35) (end 5.9 -0.85) (layer "F.CrtYd") (width 0.05) (tstamp 9a1ee4ae-e660-49f2-995b-2f9e786a47d2))
    (fp_line (start -5.9 -0.85) (end -5.9 -4.35) (layer "F.CrtYd") (width 0.05) (tstamp 9f680a18-1241-4418-aadb-0c206c9b1e25))
    (fp_line (start 5.9 4.65) (end 4.35 4.65) (layer "F.CrtYd") (width 0.05) (tstamp a5447a5a-3f78-463f-92b3-8019d9cbd4f4))
    (fp_line (start -4.35 6.4) (end -4.35 4.65) (layer "F.CrtYd") (width 0.05) (tstamp ad673409-a6b5-412f-bb14-962debd6ec67))
    (fp_line (start 4.35 6.4) (end -4.35 6.4) (layer "F.CrtYd") (width 0.05) (tstamp b4877e61-d908-4a92-9ac0-5dfa5a23f7e8))
    (fp_line (start -4.35 4.65) (end -5.89 4.65) (layer "F.CrtYd") (width 0.05) (tstamp d7d36348-4d86-4887-8ce8-77f3dc661022))
    (fp_line (start -5.9 1.15) (end -4.35 1.15) (layer "F.CrtYd") (width 0.05) (tstamp e7e1dfac-c1af-406d-9f8e-6fde94e0102c))
    (fp_line (start -5.9 -4.35) (end 5.9 -4.35) (layer "F.CrtYd") (width 0.05) (tstamp f35b2073-882e-4ac0-9440-1e7208b06a2e))
    (fp_line (start 3.85 5.9) (end -3.85 5.9) (layer "F.Fab") (width 0.1) (tstamp 1c32e674-b900-4cad-b800-47a5c2453658))
    (fp_line (start -1.6 -2.85) (end -1.3 -3.35) (layer "F.Fab") (width 0.1) (tstamp 5e913aea-9f40-4ef2-954f-5459dfa8324f))
    (fp_line (start -1.3 -3.35) (end 3.85 -3.35) (layer "F.Fab") (width 0.1) (tstamp 6ae637ec-7362-4a65-97c0-20e6d5770fa2))
    (fp_line (start -1.9 -3.35) (end -1.6 -2.85) (layer "F.Fab") (width 0.1) (tstamp 8c7bd4ce-3cc3-4104-be74-26d37631d034))
    (fp_line (start -3.85 -3.35) (end -1.9 -3.35) (layer "F.Fab") (width 0.1) (tstamp 926f4738-cb7b-4379-bba2-492c7899975b))
    (fp_line (start -3.85 5.9) (end -3.85 -3.35) (layer "F.Fab") (width 0.1) (tstamp a5bd6a24-c5c1-4715-81cc-bb0140eee476))
    (fp_line (start 3.85 -3.35) (end 3.85 5.9) (layer "F.Fab") (width 0.1) (tstamp fa029060-e57f-4aa6-a571-1f23e687032b))
    (pad "1" smd rect (at -1.6 -2.6 90) (size 0.5 2.5) (layers "F.Cu" "F.Paste" "F.Mask")
      (net 5 "5v") (pinfunction "VBUS") (pintype "power_out") (tstamp 0ae20a84-6157-4c53-abb1-49e9a43fddea))
    (pad "2" smd rect (at -0.8 -2.6 90) (size 0.5 2.5) (layers "F.Cu" "F.Paste" "F.Mask")
      (net 6 "unconnected-(J1-Pad2)") (pinfunction "D-") (pintype "bidirectional") (tstamp adffe7bf-3d92-4a46-b38a-4af65fbd0352))
    (pad "3" smd rect (at 0 -2.6 90) (size 0.5 2.5) (layers "F.Cu" "F.Paste" "F.Mask")
      (net 7 "unconnected-(J1-Pad3)") (pinfunction "D+") (pintype "bidirectional") (tstamp 9354e3c1-baf3-4fb1-ad89-26708e92f2f3))
    (pad "4" smd rect (at 0.8 -2.6 90) (size 0.5 2.5) (layers "F.Cu" "F.Paste" "F.Mask")
      (net 8 "unconnected-(J1-Pad4)") (pinfunction "ID") (pintype "passive") (tstamp 8f769b74-1b51-4a11-b217-f7821e4b85b4))
    (pad "5" smd rect (at 1.6 -2.6 90) (size 0.5 2.5) (layers "F.Cu" "F.Paste" "F.Mask")
      (net 9 "GND") (pinfunction "GND") (pintype "power_out") (tstamp 13dfcd3b-0f2c-4213-9f4e-8f701fa294b3))
    (pad "6" smd rect (at -4.4 2.9 90) (size 2 2.5) (layers "F.Cu" "F.Paste" "F.Mask")
      (net 10 "unconnected-(J1-Pad6)") (pinfunction "Shield") (pintype "passive") (tstamp 2ceb269c-002a-4d1d-8fcc-3039e49371b1))
    (pad "6" smd rect (at -4.4 -2.6 90) (size 2 2.5) (layers "F.Cu" "F.Paste" "F.Mask")
      (net 10 "unconnected-(J1-Pad6)") (pinfunction "Shield") (pintype "passive") (tstamp cd37445d-7e69-43c7-a246-3c19a9e80192))
    (pad "6" smd rect (at 4.4 -2.6 90) (size 2 2.5) (layers "F.Cu" "F.Paste" "F.Mask")
      (net 5 "5v") (pinfunction "Shield") (pintype "passive") (tstamp eb1f5f67-1647-4e1c-ab18-120e742c63a6))
    (pad "6" smd rect (at 4.4 2.9 90) (size 2 2.5) (layers "F.Cu" "F.Paste" "F.Mask")
      (net 5 "5v") (pinfunction "Shield") (pintype "passive") (tstamp f474eb24-c3d2-44ec-9cc5-fc85f895cc59))
    (model "${KICAD6_3DMODEL_DIR}/Connector_USB.3dshapes/USB_Mini-B_Wuerth_65100516121_Horizontal.wrl"
      (offset (xyz 0 0 0))
      (scale (xyz 1 1 1))
      (rotate (xyz 0 0 0))
    )
  )

  (footprint "fab:R_1206" (layer "F.Cu")
    (tedit 60020482) (tstamp 98b6599a-8370-4d52-ab50-e7859ffdc872)
    (at 119.38 78.74)
    (descr "Resistor SMD 1206, hand soldering")
    (tags "resistor 1206")
    (property "Sheetfile" "tutorial.kicad_sch")
    (property "Sheetname" "")
    (path "/545cf2ec-f7a5-41d4-ac6d-b89d0c02fb41")
    (attr smd)
    (fp_text reference "R1" (at 0 -1.85) (layer "F.SilkS")
      (effects (font (size 1 1) (thickness 0.15)))
      (tstamp c6746a20-a2a7-491d-8bf4-6734530b9889)
    )
    (fp_text value "R" (at 0 1.9) (layer "F.Fab")
      (effects (font (size 1 1) (thickness 0.15)))
      (tstamp c909aa0c-2fd9-4d9c-a4ea-3fb1adec5ed8)
    )
    (fp_text user "${REFERENCE}" (at 0 0) (layer "F.Fab")
      (effects (font (size 0.7 0.7) (thickness 0.105)))
      (tstamp 5f3ac091-d5f3-4e8d-bed3-d7d84d73e753)
    )
    (fp_line (start 1 1.07) (end -1 1.07) (layer "F.SilkS") (width 0.12) (tstamp 53dc5eaa-73e3-43ab-9e31-a54cd5adc72f))
    (fp_line (start -1 -1.07) (end 1 -1.07) (layer "F.SilkS") (width 0.12) (tstamp 6d2ec6c5-646f-4865-962c-fb5a5edbf1c2))
    (fp_line (start 3.25 1.1) (end -3.25 1.1) (layer "F.CrtYd") (width 0.05) (tstamp 3fd645e4-1c4f-4c07-afcb-59e3215127ca))
    (fp_line (start 3.25 1.1) (end 3.25 -1.11) (layer "F.CrtYd") (width 0.05) (tstamp 9fdf8bbc-e3ca-4283-a65c-7015973dbcab))
    (fp_line (start -3.25 -1.11) (end -3.25 1.1) (layer "F.CrtYd") (width 0.05) (tstamp b0c06db7-a576-4fd8-83c7-c014cc52b2d6))
    (fp_line (start -3.25 -1.11) (end 3.25 -1.11) (layer "F.CrtYd") (width 0.05) (tstamp d9191217-fb4c-4445-8d6b-28ba96ed5884))
    (fp_line (start -1.6 -0.8) (end 1.6 -0.8) (layer "F.Fab") (width 0.1) (tstamp 3def0672-3d83-48f7-bcb3-c4be8da902d5))
    (fp_line (start 1.6 -0.8) (end 1.6 0.8) (layer "F.Fab") (width 0.1) (tstamp 53b141a8-4fb6-4e1f-b3eb-8e36e10c5cc1))
    (fp_line (start -1.6 0.8) (end -1.6 -0.8) (layer "F.Fab") (width 0.1) (tstamp 5467a1d8-1da8-4db6-8370-a392f817657d))
    (fp_line (start 1.6 0.8) (end -1.6 0.8) (layer "F.Fab") (width 0.1) (tstamp bb5d112d-8806-45ee-9ac3-33210f67d54f))
    (pad "1" smd rect locked (at -2 0) (size 2 1.7) (layers "F.Cu" "F.Paste" "F.Mask")
      (net 1 "Net-(D1-Pad2)") (pintype "passive") (tstamp d9389f84-cc8b-46ce-9bf9-2f7fd6b103c4))
    (pad "2" smd rect locked (at 2 0) (size 2 1.7) (layers "F.Cu" "F.Paste" "F.Mask")
      (net 9 "GND") (pintype "passive") (tstamp e462b99b-dc16-4632-9277-f42cc1c75e32))
    (model "${FAB}/fab.3dshapes/R_1206.step"
      (offset (xyz 0 0 0))
      (scale (xyz 1 1 1))
      (rotate (xyz 0 0 0))
    )
  )

  (footprint "fab:Button_Omron_B3SN_6x6mm" (layer "F.Cu")
    (tedit 5EC65B05) (tstamp b559f405-4de0-4485-9eb1-aa1ba6266fb3)
    (at 86.36 96.52)
    (descr "Surface Mount Tactile Switch for High-Density Packaging")
    (tags "Tactile Switch")
    (property "Sheetfile" "tutorial.kicad_sch")
    (property "Sheetname" "")
    (path "/9a40bb4e-1e96-4140-89f0-1c4d86326396")
    (attr smd)
    (fp_text reference "SW1" (at 0 -4.5) (layer "F.SilkS")
      (effects (font (size 1 1) (thickness 0.15)))
      (tstamp d9afab37-6d16-489e-a6df-20a54d2ee9f9)
    )
    (fp_text value "BUTTON_B3SN" (at 0 4.5) (layer "F.Fab")
      (effects (font (size 1 1) (thickness 0.15)))
      (tstamp 3c0146c9-302b-4005-9f50-7766581fb71a)
    )
    (fp_text user "${REFERENCE}" (at 0 -4.5) (layer "F.Fab")
      (effects (font (size 1 1) (thickness 0.15)))
      (tstamp 74936d8a-1d36-412e-8d34-dbf39e66d962)
    )
    (fp_line (start 3.15 3.15) (end -3.15 3.15) (layer "F.SilkS") (width 0.12) (tstamp 0243fc01-c89d-427f-ada0-c7b78b375c4b))
    (fp_line (start -3.15 1) (end -3.15 -1) (layer "F.SilkS") (width 0.12) (tstamp 8f9bfdb5-2a57-4831-bd00-f02c2bbb920e))
    (fp_line (start 3.15 -1) (end 3.15 1) (layer "F.SilkS") (width 0.12) (tstamp a91b2e0e-b141-4814-b267-2fdc9c6a6658))
    (fp_line (start -3.15 -3.15) (end 3.15 -3.15) (layer "F.SilkS") (width 0.12) (tstamp bab9a1de-c8d3-471f-9075-142844f4fafd))
    (fp_line (start 5 3.7) (end 5 -3.7) (layer "F.CrtYd") (width 0.05) (tstamp 011a5828-4c3c-4dde-9bdb-284a3f3c4a43))
    (fp_line (start 5 -3.7) (end -5 -3.7) (layer "F.CrtYd") (width 0.05) (tstamp 1995a1af-4656-4a47-a563-d0a3f10ab4cf))
    (fp_line (start -5 3.7) (end 5 3.7) (layer "F.CrtYd") (width 0.05) (tstamp 8356d232-ef50-40f0-a742-8beed5a9bc27))
    (fp_line (start -5 -3.7) (end -5 3.7) (layer "F.CrtYd") (width 0.05) (tstamp 837176e9-8fab-41d2-86dd-da3b1b3dd39f))
    (fp_line (start -3 -3) (end 3 -3) (layer "F.Fab") (width 0.1) (tstamp 7bf62f93-87a1-4db1-8ca9-79ce9596c2b8))
    (fp_line (start 3 -3) (end 3 3) (layer "F.Fab") (width 0.1) (tstamp 884b30ea-af8f-4f82-a557-df4823436067))
    (fp_line (start 3 3) (end -3 3) (layer "F.Fab") (width 0.1) (tstamp 9428c84f-f95c-4fa2-a59d-586cb3c5d4fd))
    (fp_line (start -3 3) (end -3 -3) (layer "F.Fab") (width 0.1) (tstamp c9d7f80c-93d3-40b6-82bc-9669a79c7f05))
    (fp_circle (center 0 0) (end 1.65 0) (layer "F.Fab") (width 0.1) (fill none) (tstamp a104f8b7-5461-444e-b965-b1e6732ac99f))
    (pad "1" smd rect locked (at -3.5 -2) (size 2.5 1.5) (layers "F.Cu" "F.Paste" "F.Mask")
      (net 5 "5v") (pinfunction "1") (pintype "passive") (tstamp 888c76fa-7b17-4835-83d9-86e7676bd4ef))
    (pad "1" smd rect locked (at 3.5 -2) (size 2.5 1.5) (layers "F.Cu" "F.Paste" "F.Mask")
      (net 5 "5v") (pinfunction "1") (pintype "passive") (tstamp dd81f792-3a25-482c-b21e-05ec2d4eb5d6))
    (pad "2" smd rect locked (at 3.5 2) (size 2.5 1.5) (layers "F.Cu" "F.Paste" "F.Mask")
      (net 11 "Net-(SW1-Pad2)") (pinfunction "2") (pintype "passive") (tstamp b2fb7a1b-c9ba-4acd-a02e-25484040900c))
    (pad "2" smd rect locked (at -3.5 2) (size 2.5 1.5) (layers "F.Cu" "F.Paste" "F.Mask")
      (net 11 "Net-(SW1-Pad2)") (pinfunction "2") (pintype "passive") (tstamp f626dfdc-a42e-49fe-92eb-181cb51736dc))
    (model "${KISYS3DMOD}/Buttons_Switches_SMD.3dshapes/SW_SPST_B3S-1000.wrl"
      (offset (xyz 0 0 0))
      (scale (xyz 1 1 1))
      (rotate (xyz 0 0 0))
    )
  )

  (footprint "fab:LED_1206" (layer "F.Cu")
    (tedit 595FC724) (tstamp c898c915-89f5-4003-9fb8-8b0c3f06dfe7)
    (at 106.68 104.14 180)
    (descr "LED SMD 1206, hand soldering")
    (tags "LED 1206")
    (property "Sheetfile" "tutorial.kicad_sch")
    (property "Sheetname" "")
    (path "/91f11cbd-75d1-4785-a8e2-765e805cb861")
    (attr smd)
    (fp_text reference "D2" (at 0 -1.85) (layer "F.SilkS")
      (effects (font (size 1 1) (thickness 0.15)))
      (tstamp 772b2560-c224-4933-9225-40be66422908)
    )
    (fp_text value "LED" (at 0 1.9) (layer "F.Fab")
      (effects (font (size 1 1) (thickness 0.15)))
      (tstamp 748aaee6-99ae-41ad-8caa-46dcb39df129)
    )
    (fp_line (start -3.1 0.95) (end 1.6 0.95) (layer "F.SilkS") (width 0.12) (tstamp 43d1b320-be08-4c34-893b-273664b3ea68))
    (fp_line (start -3.1 -0.95) (end 1.6 -0.95) (layer "F.SilkS") (width 0.12) (tstamp 719bf2e0-5e5d-4c1c-a2a4-f786f1849e85))
    (fp_line (start -3.1 -0.95) (end -3.1 0.95) (layer "F.SilkS") (width 0.12) (tstamp a7928873-604e-41b4-8f3c-a9332a26491c))
    (fp_line (start 3.25 1.1) (end 3.25 -1.11) (layer "F.CrtYd") (width 0.05) (tstamp 03d91a1d-a585-47a4-99f9-06bc1c5af887))
    (fp_line (start -3.25 -1.11) (end -3.25 1.1) (layer "F.CrtYd") (width 0.05) (tstamp 3b82d8e3-a040-434a-9991-6271f6273782))
    (fp_line (start 3.25 1.1) (end -3.25 1.1) (layer "F.CrtYd") (width 0.05) (tstamp 917b5326-3ee0-4010-87d4-41a23aedd531))
    (fp_line (start -3.25 -1.11) (end 3.25 -1.11) (layer "F.CrtYd") (width 0.05) (tstamp 96597868-124d-4a3c-974d-f269e7248232))
    (fp_line (start -0.45 -0.4) (end -0.45 0.4) (layer "F.Fab") (width 0.1) (tstamp 1159df6c-6629-41f1-a8b5-e0c16ac2435d))
    (fp_line (start -1.6 -0.8) (end 1.6 -0.8) (layer "F.Fab") (width 0.1) (tstamp 2646122b-034d-4817-af32-cf5ad01ca4c3))
    (fp_line (start -1.6 0.8) (end -1.6 -0.8) (layer "F.Fab") (width 0.1) (tstamp 267be05a-0275-4937-bf0c-a7a54781ce5a))
    (fp_line (start 0.2 0.4) (end -0.4 0) (layer "F.Fab") (width 0.1) (tstamp 83e6323e-c1d6-44e5-ace0-3d300f8821e3))
    (fp_line (start 0.2 -0.4) (end 0.2 0.4) (layer "F.Fab") (width 0.1) (tstamp 89b31927-f663-4a3a-a530-c0fd8571c8d7))
    (fp_line (start 1.6 -0.8) (end 1.6 0.8) (layer "F.Fab") (width 0.1) (tstamp d4b7535d-26d7-448d-9ab0-3a8da52b3f70))
    (fp_line (start -0.4 0) (end 0.2 -0.4) (layer "F.Fab") (width 0.1) (tstamp e23187f9-dcd6-499f-90d3-0eec00b87622))
    (fp_line (start 1.6 0.8) (end -1.6 0.8) (layer "F.Fab") (width 0.1) (tstamp fe9e9f21-2e7d-4a1f-9cf8-dbb5f94d13c1))
    (pad "1" smd rect locked (at -2 0 180) (size 2 1.7) (layers "F.Cu" "F.Paste" "F.Mask")
      (net 9 "GND") (pinfunction "K") (pintype "passive") (tstamp 883e7763-c7c3-4085-8e36-b949c37033d0))
    (pad "2" smd rect locked (at 2 0 180) (size 2 1.7) (layers "F.Cu" "F.Paste" "F.Mask")
      (net 3 "Net-(D2-Pad2)") (pinfunction "A") (pintype "passive") (tstamp de4d9514-3cb5-4e56-aa34-9a36cc7ab2fb))
    (model "${KISYS3DMOD}/LEDs.3dshapes/LED_1206.wrl"
      (offset (xyz 0 0 0))
      (scale (xyz 1 1 1))
      (rotate (xyz 0 0 180))
    )
  )

  (footprint "fab:Button_Omron_B3SN_6x6mm" (layer "F.Cu")
    (tedit 5EC65B05) (tstamp e85705c7-e2a6-4d53-a85c-6c783418e0d2)
    (at 86.36 111.76)
    (descr "Surface Mount Tactile Switch for High-Density Packaging")
    (tags "Tactile Switch")
    (property "Sheetfile" "tutorial.kicad_sch")
    (property "Sheetname" "")
    (path "/5ea11ddf-2db2-49cf-a1fe-90d8ae04b7fe")
    (attr smd)
    (fp_text reference "SW2" (at 0 -4.5) (layer "F.SilkS")
      (effects (font (size 1 1) (thickness 0.15)))
      (tstamp ddaaab04-fca3-4052-9a26-35c7845fd694)
    )
    (fp_text value "BUTTON_B3SN" (at 0 4.5) (layer "F.Fab")
      (effects (font (size 1 1) (thickness 0.15)))
      (tstamp aa63055c-baeb-45aa-a784-3ad93305f13b)
    )
    (fp_text user "${REFERENCE}" (at 0 -4.5) (layer "F.Fab")
      (effects (font (size 1 1) (thickness 0.15)))
      (tstamp 369de6e0-38f9-4c75-93ed-d58163562fde)
    )
    (fp_line (start -3.15 -3.15) (end 3.15 -3.15) (layer "F.SilkS") (width 0.12) (tstamp 1a253373-7aaa-4800-82a0-f05224ca4a7a))
    (fp_line (start 3.15 -1) (end 3.15 1) (layer "F.SilkS") (width 0.12) (tstamp 925356e8-9fe3-4fca-8329-eba967a76629))
    (fp_line (start -3.15 1) (end -3.15 -1) (layer "F.SilkS") (width 0.12) (tstamp 96916265-4653-41c3-9a80-f6775aa2b630))
    (fp_line (start 3.15 3.15) (end -3.15 3.15) (layer "F.SilkS") (width 0.12) (tstamp f8978d6f-bc80-4d45-99fe-9eda6ceed8ec))
    (fp_line (start 5 3.7) (end 5 -3.7) (layer "F.CrtYd") (width 0.05) (tstamp 1e5a4a4f-7ec1-4d5e-aab0-77eebafcd5cd))
    (fp_line (start -5 3.7) (end 5 3.7) (layer "F.CrtYd") (width 0.05) (tstamp 73237229-68da-4bfc-80d6-f3f33e277d06))
    (fp_line (start -5 -3.7) (end -5 3.7) (layer "F.CrtYd") (width 0.05) (tstamp 7505eede-a417-42c3-88a2-1fe21ee21a2a))
    (fp_line (start 5 -3.7) (end -5 -3.7) (layer "F.CrtYd") (width 0.05) (tstamp da88cf57-0975-4f67-b828-34f4f4c6151f))
    (fp_line (start -3 -3) (end 3 -3) (layer "F.Fab") (width 0.1) (tstamp 37104389-0ffa-4ff9-884c-f7e490c8571a))
    (fp_line (start 3 3) (end -3 3) (layer "F.Fab") (width 0.1) (tstamp c82525cb-40e6-49c8-b5ba-a548b20e026a))
    (fp_line (start 3 -3) (end 3 3) (layer "F.Fab") (width 0.1) (tstamp e762fafd-aba3-4f95-8923-69fc7014c1b7))
    (fp_line (start -3 3) (end -3 -3) (layer "F.Fab") (width 0.1) (tstamp fbb57290-3adc-4d24-918c-497402e97c67))
    (fp_circle (center 0 0) (end 1.65 0) (layer "F.Fab") (width 0.1) (fill none) (tstamp 84164d3c-90bc-45b0-ac63-7f7a93843cb3))
    (pad "1" smd rect locked (at 3.5 -2) (size 2.5 1.5) (layers "F.Cu" "F.Paste" "F.Mask")
      (net 11 "Net-(SW1-Pad2)") (pinfunction "1") (pintype "passive") (tstamp 5362a7bb-6a5c-4582-8a84-dd179357b30c))
    (pad "1" smd rect locked (at -3.5 -2) (size 2.5 1.5) (layers "F.Cu" "F.Paste" "F.Mask")
      (net 11 "Net-(SW1-Pad2)") (pinfunction "1") (pintype "passive") (tstamp 8d9e19c9-1c38-4d1f-a346-c1ec50453cc1))
    (pad "2" smd rect locked (at -3.5 2) (size 2.5 1.5) (layers "F.Cu" "F.Paste" "F.Mask")
      (net 4 "Net-(D2-Pad1)") (pinfunction "2") (pintype "passive") (tstamp 0c45290b-d76f-4c88-a4f6-10a6b4367d24))
    (pad "2" smd rect locked (at 3.5 2) (size 2.5 1.5) (layers "F.Cu" "F.Paste" "F.Mask")
      (net 3 "Net-(D2-Pad2)") (pinfunction "2") (pintype "passive") (tstamp 528fa016-8dda-47a4-ac5a-14ef00dc9116))
    (model "${KISYS3DMOD}/Buttons_Switches_SMD.3dshapes/SW_SPST_B3S-1000.wrl"
      (offset (xyz 0 0 0))
      (scale (xyz 1 1 1))
      (rotate (xyz 0 0 0))
    )
  )

  (footprint "fab:Button_Omron_B3SN_6x6mm" (layer "F.Cu")
    (tedit 5EC65B05) (tstamp eb84e2f0-c873-4eb9-b0db-dd71bfafb64c)
    (at 86.36 68.58)
    (descr "Surface Mount Tactile Switch for High-Density Packaging")
    (tags "Tactile Switch")
    (property "Sheetfile" "tutorial.kicad_sch")
    (property "Sheetname" "")
    (path "/bcec2336-a3e4-47f8-a8bc-57ef69b7e6fd")
    (attr smd)
    (fp_text reference "SW4" (at 0 -4.5) (layer "F.SilkS")
      (effects (font (size 1 1) (thickness 0.15)))
      (tstamp e2f67213-4bba-4825-970b-821f5948cd90)
    )
    (fp_text value "BUTTON_B3SN" (at 0 4.5) (layer "F.Fab")
      (effects (font (size 1 1) (thickness 0.15)))
      (tstamp 0d9efdde-06ea-47a2-bdf8-78af3ad3ce57)
    )
    (fp_text user "${REFERENCE}" (at 0 -4.5) (layer "F.Fab")
      (effects (font (size 1 1) (thickness 0.15)))
      (tstamp 8a3add20-c253-4adc-b840-becd588ad034)
    )
    (fp_line (start -3.15 -3.15) (end 3.15 -3.15) (layer "F.SilkS") (width 0.12) (tstamp 0f39e560-9336-4a48-a641-fec45e29a92d))
    (fp_line (start 3.15 3.15) (end -3.15 3.15) (layer "F.SilkS") (width 0.12) (tstamp 9d2fde8e-b826-4531-95cf-8efc22c2d5d7))
    (fp_line (start 3.15 -1) (end 3.15 1) (layer "F.SilkS") (width 0.12) (tstamp e0f03b95-0eb4-4fed-9b1a-3564bb334a58))
    (fp_line (start -3.15 1) (end -3.15 -1) (layer "F.SilkS") (width 0.12) (tstamp e9849bc8-6aec-48ee-9fbf-9516057c0506))
    (fp_line (start -5 3.7) (end 5 3.7) (layer "F.CrtYd") (width 0.05) (tstamp 09578cae-3e9a-4372-a934-d377a0227b7c))
    (fp_line (start 5 -3.7) (end -5 -3.7) (layer "F.CrtYd") (width 0.05) (tstamp 35c7b937-91fd-45b7-ba9b-d8002e5399af))
    (fp_line (start -5 -3.7) (end -5 3.7) (layer "F.CrtYd") (width 0.05) (tstamp 6f5f0c33-b595-427a-8f2d-635a21b1d521))
    (fp_line (start 5 3.7) (end 5 -3.7) (layer "F.CrtYd") (width 0.05) (tstamp e4570e31-f9dd-4e13-a8d5-42733b999b4d))
    (fp_line (start -3 -3) (end 3 -3) (layer "F.Fab") (width 0.1) (tstamp 49c37692-773a-4783-950a-c26c3d94c603))
    (fp_line (start 3 3) (end -3 3) (layer "F.Fab") (width 0.1) (tstamp 87cac154-b9d1-4a7e-a967-b26bda25a107))
    (fp_line (start 3 -3) (end 3 3) (layer "F.Fab") (width 0.1) (tstamp e82afd7a-801a-4e3e-8de5-eae8d5f80978))
    (fp_line (start -3 3) (end -3 -3) (layer "F.Fab") (width 0.1) (tstamp ff613fa3-41c8-4c36-92a9-a9f958011df0))
    (fp_circle (center 0 0) (end 1.65 0) (layer "F.Fab") (width 0.1) (fill none) (tstamp 72ba5474-7379-4b9c-915b-82f389a67577))
    (pad "1" smd rect locked (at -3.5 -2) (size 2.5 1.5) (layers "F.Cu" "F.Paste" "F.Mask")
      (net 5 "5v") (pinfunction "1") (pintype "passive") (tstamp 64b61241-8bda-4750-89dd-2ebbc378c5f9))
    (pad "1" smd rect locked (at 3.5 -2) (size 2.5 1.5) (layers "F.Cu" "F.Paste" "F.Mask")
      (net 5 "5v") (pinfunction "1") (pintype "passive") (tstamp c9885123-a10f-435c-b990-754dee090790))
    (pad "2" smd rect locked (at 3.5 2) (size 2.5 1.5) (layers "F.Cu" "F.Paste" "F.Mask")
      (net 2 "Net-(D1-Pad1)") (pinfunction "2") (pintype "passive") (tstamp 44a15e1c-f254-4648-a79e-78dd546b3ad3))
    (pad "2" smd rect locked (at -3.5 2) (size 2.5 1.5) (layers "F.Cu" "F.Paste" "F.Mask")
      (net 2 "Net-(D1-Pad1)") (pinfunction "2") (pintype "passive") (tstamp a3211a09-e8bb-45b4-9fce-27397cf3f049))
    (model "${KISYS3DMOD}/Buttons_Switches_SMD.3dshapes/SW_SPST_B3S-1000.wrl"
      (offset (xyz 0 0 0))
      (scale (xyz 1 1 1))
      (rotate (xyz 0 0 0))
    )
  )

  (footprint "fab:LED_1206" (layer "F.Cu")
    (tedit 595FC724) (tstamp fed962e6-4c11-41ad-933f-6a0484a22c92)
    (at 106.68 78.74 180)
    (descr "LED SMD 1206, hand soldering")
    (tags "LED 1206")
    (property "Sheetfile" "tutorial.kicad_sch")
    (property "Sheetname" "")
    (path "/b2fb3e0a-b8d4-4aa2-8cd8-cb7b69895b13")
    (attr smd)
    (fp_text reference "D1" (at 0 -1.85) (layer "F.SilkS")
      (effects (font (size 1 1) (thickness 0.15)))
      (tstamp 8722c8a4-fdb0-4357-8559-49ae618ba880)
    )
    (fp_text value "LED" (at 0 1.9) (layer "F.Fab")
      (effects (font (size 1 1) (thickness 0.15)))
      (tstamp bb54ebf3-39eb-41d2-9953-cc5d1a5d74ce)
    )
    (fp_line (start -3.1 -0.95) (end 1.6 -0.95) (layer "F.SilkS") (width 0.12) (tstamp 03933f33-7fdb-43de-9d7d-a565cad8a277))
    (fp_line (start -3.1 0.95) (end 1.6 0.95) (layer "F.SilkS") (width 0.12) (tstamp 1aac4077-bad0-4463-b828-61cc63a5ccc0))
    (fp_line (start -3.1 -0.95) (end -3.1 0.95) (layer "F.SilkS") (width 0.12) (tstamp cf9f10ff-ac9e-4b40-87d1-288e16e5a85f))
    (fp_line (start -3.25 -1.11) (end -3.25 1.1) (layer "F.CrtYd") (width 0.05) (tstamp 18294f4f-7edc-4152-bf13-29a24ca720f2))
    (fp_line (start 3.25 1.1) (end 3.25 -1.11) (layer "F.CrtYd") (width 0.05) (tstamp 3cbb184a-f234-407b-9174-d026edde4a38))
    (fp_line (start -3.25 -1.11) (end 3.25 -1.11) (layer "F.CrtYd") (width 0.05) (tstamp 8b9dc805-4667-42a6-97ef-c89f0fe31327))
    (fp_line (start 3.25 1.1) (end -3.25 1.1) (layer "F.CrtYd") (width 0.05) (tstamp b426553d-4a7e-4896-84cf-af69497a695e))
    (fp_line (start -0.45 -0.4) (end -0.45 0.4) (layer "F.Fab") (width 0.1) (tstamp 0023162f-a07e-408b-b318-1e8e9f305001))
    (fp_line (start 0.2 0.4) (end -0.4 0) (layer "F.Fab") (width 0.1) (tstamp 02565f97-cd17-42be-94e0-c07f1614224c))
    (fp_line (start 1.6 0.8) (end -1.6 0.8) (layer "F.Fab") (width 0.1) (tstamp 4ee0880b-0024-42bc-8cdf-89b0f253ab70))
    (fp_line (start -0.4 0) (end 0.2 -0.4) (layer "F.Fab") (width 0.1) (tstamp 55e93042-6fff-4546-87ec-edb8203e9985))
    (fp_line (start -1.6 0.8) (end -1.6 -0.8) (layer "F.Fab") (width 0.1) (tstamp 69a7514c-f517-4b46-bf93-1effc96b0e95))
    (fp_line (start 1.6 -0.8) (end 1.6 0.8) (layer "F.Fab") (width 0.1) (tstamp bb3823e8-bdbd-4f66-b957-b61f7f04dd87))
    (fp_line (start -1.6 -0.8) (end 1.6 -0.8) (layer "F.Fab") (width 0.1) (tstamp c7bd9338-9aed-41bb-820b-e4615e63ea41))
    (fp_line (start 0.2 -0.4) (end 0.2 0.4) (layer "F.Fab") (width 0.1) (tstamp d94f6a76-1cd8-44c8-b9e0-1b2743a67b84))
    (pad "1" smd rect locked (at -2 0 180) (size 2 1.7) (layers "F.Cu" "F.Paste" "F.Mask")
      (net 2 "Net-(D1-Pad1)") (pinfunction "K") (pintype "passive") (tstamp 12368119-64a6-4e2c-9075-8eb76c0372b6))
    (pad "2" smd rect locked (at 2 0 180) (size 2 1.7) (layers "F.Cu" "F.Paste" "F.Mask")
      (net 1 "Net-(D1-Pad2)") (pinfunction "A") (pintype "passive") (tstamp 3f0a593a-f5d6-4037-a904-84b77fcf44ec))
    (model "${KISYS3DMOD}/LEDs.3dshapes/LED_1206.wrl"
      (offset (xyz 0 0 0))
      (scale (xyz 1 1 1))
      (rotate (xyz 0 0 180))
    )
  )

  (gr_rect (start 73.9648 61.9252) (end 152.7048 121.412) (layer "Edge.Cuts") (width 1) (fill none) (tstamp ffe9049a-9808-4c6b-a9c4-d8b6eb2723b1))

  (segment (start 108.68 78.74) (end 117.38 78.74) (width 0.4) (layer "F.Cu") (net 1) (tstamp f0efd7d9-5329-435f-b120-2377b48fb3c9))
  (segment (start 89.86 70.58) (end 93.44 70.58) (width 0.4) (layer "F.Cu") (net 2) (tstamp 1c7731c2-7e9d-4a78-af13-77468ad24136))
  (segment (start 94.52 83.28) (end 99.06 78.74) (width 0.4) (layer "F.Cu") (net 2) (tstamp 73127461-b144-49d3-81f7-4c074da7560c))
  (segment (start 93.44 70.58) (end 93.98 71.12) (width 0.4) (layer "F.Cu") (net 2) (tstamp a0ceab36-82f0-49f5-a282-30eda94be00a))
  (segment (start 93.98 71.12) (end 99.06 78.74) (width 0.4) (layer "F.Cu") (net 2) (tstamp aa62ff4a-4931-458c-8652-6e7c69ec861c))
  (segment (start 99.06 78.74) (end 104.68 78.74) (width 0.4) (layer "F.Cu") (net 2) (tstamp c6651254-9b2f-4c93-8315-87631ed77bca))
  (segment (start 89.86 83.28) (end 94.52 83.28) (width 0.4) (layer "F.Cu") (net 2) (tstamp ee56e7fd-0b29-4af5-bc9c-d62d1d9ed30f))
  (segment (start 89.86 113.34) (end 99.06 104.14) (width 0.4) (layer "F.Cu") (net 3) (tstamp a1a91a3c-be00-4a5f-b6fd-08f2251a3f4b))
  (segment (start 99.06 104.14) (end 104.68 104.14) (width 0.4) (layer "F.Cu") (net 3) (tstamp c678ce50-ba3c-4678-9482-24a696c9c6e8))
  (segment (start 89.86 113.76) (end 89.86 113.34) (width 0.4) (layer "F.Cu") (net 3) (tstamp dd06c53d-16fb-4a9e-8aae-ff135cb05e90))
  (segment (start 139.7 106.68) (end 104.14 106.68) (width 0.4) (layer "F.Cu") (net 5) (tstamp 16654c24-b7b0-4610-b617-a26b1fe1d3d8))
  (segment (start 147.32 81.28) (end 146.429511 80.389511) (width 0.4) (layer "F.Cu") (net 5) (tstamp 1b5b0942-22ae-408a-9dfc-a25f58bd9361))
  (segment (start 137.1 74.34) (end 142.6 74.34) (width 0.4) (layer "F.Cu") (net 5) (tstamp 22342b95-eeff-4d2c-870a-9ab3bb86bf29))
  (segment (start 104.14 106.68) (end 91.44 119.38) (width 0.4) (layer "F.Cu") (net 5) (tstamp 3ce55c0b-d211-437a-b731-8c9079936cbc))
  (segment (start 78.74 116.84) (end 81.28 119.38) (width 0.4) (layer "F.Cu") (net 5) (tstamp 41224e51-5f67-4cab-a36e-52a767d3c427))
  (segment (start 82.86 94.52) (end 89.86 94.52) (width 0.4) (layer "F.Cu") (net 5) (tstamp 472c480b-bc60-494f-9e19-b2c8dbe3c1a3))
  (segment (start 149.86 83.82) (end 147.32 81.28) (width 0.4) (layer "F.Cu") (net 5) (tstamp 4b1e0e5d-35ac-451a-822c-2173fd699655))
  (segment (start 82.86 66.58) (end 86.9 66.58) (width 0.4) (layer "F.Cu") (net 5) (tstamp 4f891e41-423d-4cda-8f4d-6d028c2e6003))
  (segment (start 78.74 96.52) (end 81.010489 94.249511) (width 0.4) (layer "F.Cu") (net 5) (tstamp 56c8fb9a-3108-494a-a8ad-ff2d3dd28218))
  (segment (start 146.429511 80.389511) (end 137.1 80.389511) (width 0.4) (layer "F.Cu") (net 5) (tstamp 59c43686-2605-4964-898c-ea48ea3b121e))
  (segment (start 86.9 75.24) (end 82.86 79.28) (width 0.4) (layer "F.Cu") (net 5) (tstamp 64cdd5f2-2bad-4fdd-b9d5-dcf88b1b7b21))
  (segment (start 80.74 79.28) (end 82.86 79.28) (width 0.4) (layer "F.Cu") (net 5) (tstamp 761c79a0-cb1a-42d4-9066-3a8bac939cdf))
  (segment (start 78.74 81.28) (end 80.74 79.28) (width 0.4) (layer "F.Cu") (net 5) (tstamp 793885b0-bfaa-4c5f-82aa-79183476bde6))
  (segment (start 89.86 94.52) (end 88.010489 92.670489) (width 0.4) (layer "F.Cu") (net 5) (tstamp 7eb7a165-4d89-4614-87b8-f9de7f1734d7))
  (segment (start 78.74 91.979022) (end 78.74 81.28) (width 0.4) (layer "F.Cu") (net 5) (tstamp 84dacc7f-a77b-42d8-9b09-c921bef5b098))
  (segment (start 86.9 66.58) (end 86.9 75.24) (width 0.4) (layer "F.Cu") (net 5) (tstamp 8a05b01f-4e10-4ce8-a41b-ca5772eead1f))
  (segment (start 88.010489 81.129511) (end 89.86 79.28) (width 0.4) (layer "F.Cu") (net 5) (tstamp 8c6217ea-f3ce-4270-9d9b-0fe056cd9f4e))
  (segment (start 88.010489 92.670489) (end 88.010489 81.129511) (width 0.4) (layer "F.Cu") (net 5) (tstamp 8cf2d91c-00a7-4a64-984f-88ac780c0918))
  (segment (start 78.74 116.84) (end 78.74 96.52) (width 0.4) (layer "F.Cu") (net 5) (tstamp 90ccdb78-cc1b-43c9-a6d5-5c8765c69000))
  (segment (start 81.010489 94.249511) (end 82.589511 94.249511) (width 0.4) (layer "F.Cu") (net 5) (tstamp 9586de5c-fa94-4185-8a16-4aa744f82fcf))
  (segment (start 86.9 66.58) (end 89.86 66.58) (width 0.4) (layer "F.Cu") (net 5) (tstamp c07b8310-58da-48c5-a532-998b0d4a346e))
  (segment (start 81.28 119.38) (end 91.44 119.38) (width 0.4) (layer "F.Cu") (net 5) (tstamp c44f07e5-d756-406b-8f22-4aff12199f18))
  (segment (start 149.86 101.6) (end 149.86 83.82) (width 0.4) (layer "F.Cu") (net 5) (tstamp d24e3b77-fcc9-4862-b821-35cf8be99362))
  (segment (start 82.589511 94.249511) (end 82.86 94.52) (width 0.4) (layer "F.Cu") (net 5) (tstamp dc59e8d5-230c-4592-8413-fc71ef6e8ff3))
  (segment (start 81.026 94.1832) (end 78.74 91.979022) (width 0.4) (layer "F.Cu") (net 5) (tstamp e0acb921-ea02-4d94-bc81-5859e8c5322f))
  (segment (start 147.32 106.68) (end 149.86 101.6) (width 0.4) (layer "F.Cu") (net 5) (tstamp e22465b8-acc1-46c4-9b5d-e2e4156397d5))
  (segment (start 139.7 106.68) (end 147.32 106.68) (width 0.4) (layer "F.Cu") (net 5) (tstamp f551ba3d-b7df-42bf-ab82-c05789b99cf2))
  (segment (start 124.46 88.71) (end 121.38 85.63) (width 0.4) (layer "F.Cu") (net 9) (tstamp 0b2df1d5-3dbf-4c09-887a-4e3352647953))
  (segment (start 121.38 78.74) (end 121.38 85.63) (width 0.4) (layer "F.Cu") (net 9) (tstamp 5d460dfb-f3e8-43e3-a8e5-00775db35f41))
  (segment (start 139.7 104.14) (end 124.46 104.14) (width 0.4) (layer "F.Cu") (net 9) (tstamp 6a269650-388f-48e9-8a49-20e121d47e5c))
  (segment (start 124.46 104.14) (end 124.46 88.71) (width 0.4) (layer "F.Cu") (net 9) (tstamp 89d8aed3-318f-477e-a948-4b7fdbd92c72))
  (segment (start 126.109511 77.090489) (end 137.1 77.090489) (width 0.4) (layer "F.Cu") (net 9) (tstamp adabd5de-fc4a-417d-a1c8-2bbd07fdcae3))
  (segment (start 124.46 78.74) (end 126.109511 77.090489) (width 0.4) (layer "F.Cu") (net 9) (tstamp b8d40fe2-446b-400c-813d-56d0737e2793))
  (segment (start 121.38 78.74) (end 124.46 78.74) (width 0.4) (layer "F.Cu") (net 9) (tstamp bf4b6731-c9b1-4005-9d7b-0749f769c453))
  (segment (start 108.68 104.14) (end 120.46 104.14) (width 0.4) (layer "F.Cu") (net 9) (tstamp f27804ad-1c58-446e-b088-be41234df680))
  (segment (start 82.86 98.52) (end 82.86 109.76) (width 0.4) (layer "F.Cu") (net 11) (tstamp 914b9332-113e-4456-afaf-66f0103c9bd6))

)
